{
  "version-next-docs": {
    "Intro": [
      "version-next-intro/what-and-why",
      "version-next-intro/installation",
      "version-next-intro/editor-support"
    ],
    "Language Basics": [
      "version-next-language-basics/cheat-sheet",
      "version-next-language-basics/types",
      "version-next-language-basics/variables",
      "version-next-language-basics/functions",
      "version-next-language-basics/entrypoints",
      "version-next-language-basics/operators"
    ],
    "API": [
      "version-next-api-cli-commands"
    ]
  },
  "version-next-contributors-docs": {
    "Introduction": [
      "version-next-contributors/origin",
      "version-next-contributors/philosophy",
      "version-next-contributors/getting-started",
      "version-next-contributors/documentation-and-releases"
    ],
    "Big Picture": [
      "version-next-contributors/big-picture/overview",
      "version-next-contributors/big-picture/front-end",
      "version-next-contributors/big-picture/middle-end",
      "version-next-contributors/big-picture/back-end",
      "version-next-contributors/big-picture/vendors"
    ],
    "Road Map": [
      "version-next-contributors/road-map/short-term",
      "version-next-contributors/road-map/long-term"
    ]
  },
  "version-next-tutorials": {
    "Get Started": [
      "version-next-tutorials/get-started/tezos-taco-shop-smart-contract",
      "version-next-tutorials/get-started/tezos-taco-shop-payout"
    ]
  }
}
